{
  "project_info": {
    "project_number": "1053769987079",
    "firebase_url": "https://red-rich-mary.firebaseio.com",
    "project_id": "red-rich-mary",
    "storage_bucket": "red-rich-mary.appspot.com"
  },
  "client": [
    {
      "client_info": {
        "mobilesdk_app_id": "1:1053769987079:android:ec0d239da0b17f13a8a6a2",
        "android_client_info": {
          "package_name": "com.redddd.marrch"
        }
      },
      "oauth_client": [
        {
          "client_id": "1053769987079-urgvueak3k01j3i3krt16ckgpcfnjh8q.apps.googleusercontent.com",
          "client_type": 3
        }
      ],
      "api_key": [
        {
          "current_key": "AIzaSyDJR_XHRJI4q2YhCi2rjuaWfUtmXvYem9s"
        }
      ],
      "services": {
        "appinvite_service": {
          "other_platform_oauth_client": [
            {
              "client_id": "1053769987079-urgvueak3k01j3i3krt16ckgpcfnjh8q.apps.googleusercontent.com",
              "client_type": 3
            }
          ]
        }
      }
    }
  ],
  "configuration_version": "1"
}